module gitlab.com/bettse/skylanders_keygen

go 1.19

require (
	github.com/alecthomas/kingpin/v2 v2.4.0 // indirect
	github.com/alecthomas/units v0.0.0-20211218093645-b94a6e3cc137 // indirect
	github.com/xhit/go-str2duration/v2 v2.1.0 // indirect
)
